30-day mortality
…
### For counting number of notes per patient

mytbl <- notes_df
nrow(mytbl)

## [1] 483241

length(unique(mytbl$hadm_id))

## [1] 28146

count.tbl <- count(mytbl, hadm_id)
count.tbl

## # A tibble: 28,146 x 2
##    hadm_id     n
##      <int> <int>
##  1  100003    12
##  2  100006    14
##  3  100007     7
##  4  100017     5
##  5  100018    25
##  6  100021    10
##  7  100030     7
##  8  100031    14
##  9  100033     4
## 10  100036     5
## #  with 28,136 more rows
…
